{
  "project_info": {
    "project_number": "658697000697",
    "firebase_url": "https://bubble-angle.firebaseio.com",
    "project_id": "bubble-angle",
    "storage_bucket": "bubble-angle.appspot.com"
  },
  "client": [
    {
      "client_info": {
        "mobilesdk_app_id": "1:658697000697:android:35b882c662e45721",
        "android_client_info": {
          "package_name": "patru20.bubbleangle"
        }
      },
      "oauth_client": [
        {
          "client_id": "658697000697-ejo392f0b43vo2uqlb079h6fedh9lovb.apps.googleusercontent.com",
          "client_type": 1,
          "android_info": {
            "package_name": "patru20.bubbleangle",
            "certificate_hash": "019da3c457897007a21df2fbb0addd9c7aaea146"
          }
        },
        {
          "client_id": "658697000697-lujnsu7p6hh6eq8pn1acjkq32vmg395l.apps.googleusercontent.com",
          "client_type": 3
        }
      ],
      "api_key": [
        {
          "current_key": "AIzaSyBqQumTsddQxGHZFgwIeCjSQf2pmVmnu7M"
        }
      ],
      "services": {
        "appinvite_service": {
          "other_platform_oauth_client": [
            {
              "client_id": "658697000697-lujnsu7p6hh6eq8pn1acjkq32vmg395l.apps.googleusercontent.com",
              "client_type": 3
            }
          ]
        }
      }
    }
  ],
  "configuration_version": "1"
}